(export (version D)
  (design
    (source /home/debe/git/JP8-4-ALL/JP8-control.sch)
    (date "vr 30 nov 2018 02:45:46 CET")
    (tool "Eeschema 4.0.6+dfsg1-1")
    (sheet (number 1) (name /) (tstamps /)
      (title_block
        (title)
        (company)
        (rev)
        (date)
        (source JP8-control.sch)
        (comment (number 1) (value ""))
        (comment (number 2) (value ""))
        (comment (number 3) (value ""))
        (comment (number 4) (value ""))))
    (sheet (number 2) (name /env-kf-osc/) (tstamps /5BEC776F/)
      (title_block
        (title)
        (company)
        (rev)
        (date)
        (source env-kf-osc.sch)
        (comment (number 1) (value ""))
        (comment (number 2) (value ""))
        (comment (number 3) (value ""))
        (comment (number 4) (value ""))))
    (sheet (number 3) (name /env-kf-sw/) (tstamps /5BEC777F/)
      (title_block
        (title)
        (company)
        (rev)
        (date)
        (source env-kf-sw.sch)
        (comment (number 1) (value ""))
        (comment (number 2) (value ""))
        (comment (number 3) (value ""))
        (comment (number 4) (value ""))))
    (sheet (number 4) (name /sw-data-level-shift/) (tstamps /5BEC8144/)
      (title_block
        (title)
        (company)
        (rev)
        (date)
        (source sw-data-level-shift.sch)
        (comment (number 1) (value ""))
        (comment (number 2) (value ""))
        (comment (number 3) (value ""))
        (comment (number 4) (value ""))))
    (sheet (number 5) (name /sw-data-latches/) (tstamps /5BEC8146/)
      (title_block
        (title)
        (company)
        (rev)
        (date)
        (source sw-data-latches.sch)
        (comment (number 1) (value ""))
        (comment (number 2) (value ""))
        (comment (number 3) (value ""))
        (comment (number 4) (value ""))))
    (sheet (number 6) (name /range-cv-da-conv/) (tstamps /5BEC829E/)
      (title_block
        (title)
        (company)
        (rev)
        (date)
        (source range-cv-da-conv.sch)
        (comment (number 1) (value ""))
        (comment (number 2) (value ""))
        (comment (number 3) (value ""))
        (comment (number 4) (value ""))))
    (sheet (number 7) (name /noise-gen/) (tstamps /5BEC84AF/)
      (title_block
        (title)
        (company)
        (rev)
        (date)
        (source noise-gen.sch)
        (comment (number 1) (value ""))
        (comment (number 2) (value ""))
        (comment (number 3) (value ""))
        (comment (number 4) (value ""))))
    (sheet (number 8) (name /vco-mod-control/) (tstamps /5BEC8C6D/)
      (title_block
        (title)
        (company)
        (rev)
        (date)
        (source vco-mod-control.sch)
        (comment (number 1) (value ""))
        (comment (number 2) (value ""))
        (comment (number 3) (value ""))
        (comment (number 4) (value ""))))
    (sheet (number 9) (name /power-control/) (tstamps /5BEC8C6F/)
      (title_block
        (title)
        (company)
        (rev)
        (date)
        (source power-control.sch)
        (comment (number 1) (value ""))
        (comment (number 2) (value ""))
        (comment (number 3) (value ""))
        (comment (number 4) (value ""))))
    (sheet (number 10) (name /vco-level-control/) (tstamps /5BEC8C71/)
      (title_block
        (title)
        (company)
        (rev)
        (date)
        (source vco-level-control.sch)
        (comment (number 1) (value ""))
        (comment (number 2) (value ""))
        (comment (number 3) (value ""))
        (comment (number 4) (value ""))))
    (sheet (number 11) (name /vco-lfo-mod/) (tstamps /5BEC8CDD/)
      (title_block
        (title)
        (company)
        (rev)
        (date)
        (source vco-lfo-mod.sch)
        (comment (number 1) (value ""))
        (comment (number 2) (value ""))
        (comment (number 3) (value ""))
        (comment (number 4) (value ""))))
    (sheet (number 12) (name /vca-mod-control/) (tstamps /5BEC8CDF/)
      (title_block
        (title)
        (company)
        (rev)
        (date)
        (source vca-mod-control.sch)
        (comment (number 1) (value ""))
        (comment (number 2) (value ""))
        (comment (number 3) (value ""))
        (comment (number 4) (value ""))))
    (sheet (number 13) (name /vcf-mod-control/) (tstamps /5BEC8CE1/)
      (title_block
        (title)
        (company)
        (rev)
        (date)
        (source vcf-mod-control.sch)
        (comment (number 1) (value ""))
        (comment (number 2) (value ""))
        (comment (number 3) (value ""))
        (comment (number 4) (value ""))))
    (sheet (number 14) (name /lfo-delay/) (tstamps /5BEC93CC/)
      (title_block
        (title)
        (company)
        (rev)
        (date)
        (source lfo-delay.sch)
        (comment (number 1) (value ""))
        (comment (number 2) (value ""))
        (comment (number 3) (value ""))
        (comment (number 4) (value ""))))
    (sheet (number 15) (name /lfo/) (tstamps /5BEC93CE/)
      (title_block
        (title)
        (company)
        (rev)
        (date)
        (source lfo.sch)
        (comment (number 1) (value ""))
        (comment (number 2) (value ""))
        (comment (number 3) (value ""))
        (comment (number 4) (value ""))))
    (sheet (number 16) (name /dpmx/) (tstamps /5BEC9404/)
      (title_block
        (title)
        (company)
        (rev)
        (date)
        (source dpmx.sch)
        (comment (number 1) (value ""))
        (comment (number 2) (value ""))
        (comment (number 3) (value ""))
        (comment (number 4) (value "")))))
  (components
    (comp (ref CON4)
      (value LM)
      (footprint Pin_Headers:Pin_Header_Straight_2x25_Pitch2.54mm)
      (libsource (lib conn) (part CONN_02X25))
      (sheetpath (names /) (tstamps /))
      (tstamp 5BEC5DD5))
    (comp (ref CON3)
      (value MP)
      (footprint Connectors_Molex:Molex_PicoBlade_53398-0671_06x1.25mm_Straight)
      (libsource (lib conn) (part CONN_01X06))
      (sheetpath (names /) (tstamps /))
      (tstamp 5BEC5DEC))
    (comp (ref CON1)
      (value AL)
      (footprint Pin_Headers:Pin_Header_Straight_2x05_Pitch2.54mm)
      (libsource (lib conn) (part CONN_01X10))
      (sheetpath (names /) (tstamps /))
      (tstamp 5BECA904))
    (comp (ref CON2)
      (value HL)
      (footprint Pin_Headers:Pin_Header_Straight_2x10_Pitch2.54mm)
      (libsource (lib conn) (part CONN_02X10))
      (sheetpath (names /) (tstamps /))
      (tstamp 5BECA937))
    (comp (ref R88)
      (value 1.8k)
      (footprint JP8:R_Axial_DIN0207_L6.3mm_D2.5mm_P10.16mm_Horizontal)
      (libsource (lib device) (part R))
      (sheetpath (names /power-control/) (tstamps /5BEC8C6F/))
      (tstamp 5C008A16))
    (comp (ref D13)
      (value D_Schottky)
      (footprint JP8:D_DO-35_SOD27_P10.16mm_Horizontal)
      (libsource (lib device) (part D_Schottky))
      (sheetpath (names /power-control/) (tstamps /5BEC8C6F/))
      (tstamp 5C008A17))
    (comp (ref R85)
      (value 6.8k)
      (footprint JP8:R_Axial_DIN0207_L6.3mm_D2.5mm_P10.16mm_Horizontal)
      (libsource (lib device) (part R))
      (sheetpath (names /power-control/) (tstamps /5BEC8C6F/))
      (tstamp 5C008A18))
    (comp (ref C59)
      (value 0.02u)
      (footprint JP8:CP_Radial_D5.0mm_P2.50mm)
      (libsource (lib device) (part CP))
      (sheetpath (names /power-control/) (tstamps /5BEC8C6F/))
      (tstamp 5C008A19))
    (comp (ref C61)
      (value ".1u C")
      (footprint JP8:C_Disc_D7.5mm_W2.5mm_P5.00mm)
      (libsource (lib device) (part C))
      (sheetpath (names /power-control/) (tstamps /5BEC8C6F/))
      (tstamp 5C008A1A))
    (comp (ref TR15)
      (value NPN)
      (footprint JP8:TO-92_Inline_Wide)
      (libsource (lib device) (part Q_NPN_BCE))
      (sheetpath (names /power-control/) (tstamps /5BEC8C6F/))
      (tstamp 5C008A1B))
    (comp (ref R86)
      (value 4.7k)
      (footprint JP8:R_Axial_DIN0207_L6.3mm_D2.5mm_P10.16mm_Horizontal)
      (libsource (lib device) (part R))
      (sheetpath (names /power-control/) (tstamps /5BEC8C6F/))
      (tstamp 5C008A1C))
    (comp (ref D14)
      (value D_Schottky)
      (footprint JP8:D_DO-35_SOD27_P10.16mm_Horizontal)
      (libsource (lib device) (part D_Schottky))
      (sheetpath (names /power-control/) (tstamps /5BEC8C6F/))
      (tstamp 5C008A1D))
    (comp (ref R87)
      (value 6.8k)
      (footprint JP8:R_Axial_DIN0207_L6.3mm_D2.5mm_P10.16mm_Horizontal)
      (libsource (lib device) (part R))
      (sheetpath (names /power-control/) (tstamps /5BEC8C6F/))
      (tstamp 5C008A1E))
    (comp (ref C57)
      (value 0.02u)
      (footprint JP8:CP_Radial_D5.0mm_P2.50mm)
      (libsource (lib device) (part CP))
      (sheetpath (names /power-control/) (tstamps /5BEC8C6F/))
      (tstamp 5C008A1F))
    (comp (ref C62)
      (value ".1u C")
      (footprint JP8:C_Disc_D7.5mm_W2.5mm_P5.00mm)
      (libsource (lib device) (part C))
      (sheetpath (names /power-control/) (tstamps /5BEC8C6F/))
      (tstamp 5C008A20))
    (comp (ref TR16)
      (value PNP)
      (footprint JP8:TO-92_Inline_Wide)
      (libsource (lib device) (part Q_PNP_BCE))
      (sheetpath (names /power-control/) (tstamps /5BEC8C6F/))
      (tstamp 5C008A21))
    (comp (ref VR4)
      (value "2k B MF")
      (footprint JP8:Potentiometer_Trimmer_Piher_PT-10h2.5_Vertical_Px2.5mm_Py5.0mm)
      (libsource (lib device) (part POT))
      (sheetpath (names /power-control/) (tstamps /5BEC8C6F/))
      (tstamp 5C008A22))
    (comp (ref R84)
      (value "8.2k MF")
      (footprint JP8:R_Axial_DIN0207_L6.3mm_D2.5mm_P10.16mm_Horizontal)
      (libsource (lib device) (part R))
      (sheetpath (names /power-control/) (tstamps /5BEC8C6F/))
      (tstamp 5C008A23))
    (comp (ref R83)
      (value "10k MF")
      (footprint JP8:R_Axial_DIN0207_L6.3mm_D2.5mm_P10.16mm_Horizontal)
      (libsource (lib device) (part R))
      (sheetpath (names /power-control/) (tstamps /5BEC8C6F/))
      (tstamp 5C008A24))
    (comp (ref IC9)
      (value JP_4558)
      (footprint Housings_DIP:DIP-8_W7.62mm)
      (libsource (lib JP8-4ALL-cache) (part JP_4558))
      (sheetpath (names /power-control/) (tstamps /5BEC8C6F/))
      (tstamp 5C008FA9))
    (comp (ref C80)
      (value 0.02u)
      (footprint JP8:CP_Radial_D5.0mm_P2.50mm)
      (libsource (lib device) (part CP))
      (sheetpath (names /power-control/) (tstamps /5BEC8C6F/))
      (tstamp 5C009198))
    (comp (ref D12)
      (value D_Schottky)
      (footprint JP8:D_DO-35_SOD27_P10.16mm_Horizontal)
      (libsource (lib device) (part D_Schottky))
      (sheetpath (names /power-control/) (tstamps /5BEC8C6F/))
      (tstamp 5C009223))
    (comp (ref R80)
      (value 4.7k)
      (footprint JP8:R_Axial_DIN0207_L6.3mm_D2.5mm_P10.16mm_Horizontal)
      (libsource (lib device) (part R))
      (sheetpath (names /power-control/) (tstamps /5BEC8C6F/))
      (tstamp 5C009D09))
    (comp (ref R81)
      (value 1.8k)
      (footprint JP8:R_Axial_DIN0207_L6.3mm_D2.5mm_P10.16mm_Horizontal)
      (libsource (lib device) (part R))
      (sheetpath (names /power-control/) (tstamps /5BEC8C6F/))
      (tstamp 5C009D7F))
    (comp (ref TR14)
      (value NPN)
      (footprint JP8:TO-92_Inline_Wide)
      (libsource (lib device) (part Q_NPN_BCE))
      (sheetpath (names /power-control/) (tstamps /5BEC8C6F/))
      (tstamp 5C009E0A))
    (comp (ref R82)
      (value 820)
      (footprint JP8:R_Axial_DIN0207_L6.3mm_D2.5mm_P10.16mm_Horizontal)
      (libsource (lib device) (part R))
      (sheetpath (names /power-control/) (tstamps /5BEC8C6F/))
      (tstamp 5C00A0F1))
    (comp (ref R76)
      (value "10k MF")
      (footprint JP8:R_Axial_DIN0207_L6.3mm_D2.5mm_P10.16mm_Horizontal)
      (libsource (lib device) (part R))
      (sheetpath (names /power-control/) (tstamps /5BEC8C6F/))
      (tstamp 5C00A21B))
    (comp (ref R75)
      (value "10k MF")
      (footprint JP8:R_Axial_DIN0207_L6.3mm_D2.5mm_P10.16mm_Horizontal)
      (libsource (lib device) (part R))
      (sheetpath (names /power-control/) (tstamps /5BEC8C6F/))
      (tstamp 5C00A2BB))
    (comp (ref TR13)
      (value PNP)
      (footprint JP8:TO-92_Inline_Wide)
      (libsource (lib device) (part Q_PNP_BCE))
      (sheetpath (names /power-control/) (tstamps /5BEC8C6F/))
      (tstamp 5C00A47E))
    (comp (ref R78)
      (value 1.8k)
      (footprint JP8:R_Axial_DIN0207_L6.3mm_D2.5mm_P10.16mm_Horizontal)
      (libsource (lib device) (part R))
      (sheetpath (names /power-control/) (tstamps /5BEC8C6F/))
      (tstamp 5C00AAEF))
    (comp (ref R74)
      (value 10k)
      (footprint JP8:R_Axial_DIN0207_L6.3mm_D2.5mm_P10.16mm_Horizontal)
      (libsource (lib device) (part R))
      (sheetpath (names /power-control/) (tstamps /5BEC8C6F/))
      (tstamp 5C00AEFC))
    (comp (ref C58)
      (value 0.02u)
      (footprint JP8:CP_Radial_D5.0mm_P2.50mm)
      (libsource (lib device) (part CP))
      (sheetpath (names /power-control/) (tstamps /5BEC8C6F/))
      (tstamp 5C00B314))
    (comp (ref C55)
      (value 0.02u)
      (footprint JP8:CP_Radial_D5.0mm_P2.50mm)
      (libsource (lib device) (part CP))
      (sheetpath (names /power-control/) (tstamps /5BEC8C6F/))
      (tstamp 5C00B3D6))
    (comp (ref C60)
      (value "0.1u C")
      (footprint JP8:C_Disc_D7.5mm_W2.5mm_P5.00mm)
      (libsource (lib device) (part C))
      (sheetpath (names /power-control/) (tstamps /5BEC8C6F/))
      (tstamp 5C00B735))
    (comp (ref C56)
      (value "0.1u C")
      (footprint JP8:C_Disc_D7.5mm_W2.5mm_P5.00mm)
      (libsource (lib device) (part C))
      (sheetpath (names /power-control/) (tstamps /5BEC8C6F/))
      (tstamp 5C00B7AA))
    (comp (ref R79)
      (value 4.7k)
      (footprint JP8:R_Axial_DIN0207_L6.3mm_D2.5mm_P10.16mm_Horizontal)
      (libsource (lib device) (part R))
      (sheetpath (names /power-control/) (tstamps /5BEC8C6F/))
      (tstamp 5C00CFCA)))
  (libparts
    (libpart (lib device) (part C)
      (description "Unpolarized capacitor")
      (footprints
        (fp C_*))
      (fields
        (field (name Reference) C)
        (field (name Value) C))
      (pins
        (pin (num 1) (name ~) (type passive))
        (pin (num 2) (name ~) (type passive))))
    (libpart (lib conn) (part CONN_01X06)
      (description "Connector, single row, 01x06, pin header")
      (footprints
        (fp Pin_Header_Straight_1X*)
        (fp Pin_Header_Angled_1X*)
        (fp Socket_Strip_Straight_1X*)
        (fp Socket_Strip_Angled_1X*))
      (fields
        (field (name Reference) J)
        (field (name Value) CONN_01X06))
      (pins
        (pin (num 1) (name P1) (type passive))
        (pin (num 2) (name P2) (type passive))
        (pin (num 3) (name P3) (type passive))
        (pin (num 4) (name P4) (type passive))
        (pin (num 5) (name P5) (type passive))
        (pin (num 6) (name P6) (type passive))))
    (libpart (lib conn) (part CONN_01X10)
      (description "Connector, single row, 01x10, pin header")
      (footprints
        (fp Pin_Header_Straight_1X*)
        (fp Pin_Header_Angled_1X*)
        (fp Socket_Strip_Straight_1X*)
        (fp Socket_Strip_Angled_1X*))
      (fields
        (field (name Reference) J)
        (field (name Value) CONN_01X10))
      (pins
        (pin (num 1) (name P1) (type passive))
        (pin (num 2) (name P2) (type passive))
        (pin (num 3) (name P3) (type passive))
        (pin (num 4) (name P4) (type passive))
        (pin (num 5) (name P5) (type passive))
        (pin (num 6) (name P6) (type passive))
        (pin (num 7) (name P7) (type passive))
        (pin (num 8) (name P8) (type passive))
        (pin (num 9) (name P9) (type passive))
        (pin (num 10) (name P10) (type passive))))
    (libpart (lib conn) (part CONN_02X10)
      (description "Connector, double row, 02x10, pin header")
      (footprints
        (fp Pin_Header_Straight_2X*)
        (fp Pin_Header_Angled_2X*)
        (fp Socket_Strip_Straight_2X*)
        (fp Socket_Strip_Angled_2X*)
        (fp IDC_Header_Straight_*))
      (fields
        (field (name Reference) J)
        (field (name Value) CONN_02X10))
      (pins
        (pin (num 1) (name P1) (type passive))
        (pin (num 2) (name P2) (type passive))
        (pin (num 3) (name P3) (type passive))
        (pin (num 4) (name P4) (type passive))
        (pin (num 5) (name P5) (type passive))
        (pin (num 6) (name P6) (type passive))
        (pin (num 7) (name P7) (type passive))
        (pin (num 8) (name P8) (type passive))
        (pin (num 9) (name P9) (type passive))
        (pin (num 10) (name P10) (type passive))
        (pin (num 11) (name P11) (type passive))
        (pin (num 12) (name P12) (type passive))
        (pin (num 13) (name P13) (type passive))
        (pin (num 14) (name P14) (type passive))
        (pin (num 15) (name P15) (type passive))
        (pin (num 16) (name P16) (type passive))
        (pin (num 17) (name P17) (type passive))
        (pin (num 18) (name P18) (type passive))
        (pin (num 19) (name P19) (type passive))
        (pin (num 20) (name P20) (type passive))))
    (libpart (lib conn) (part CONN_02X25)
      (description "Connector, double row, 02x25, pin header")
      (footprints
        (fp Pin_Header_Straight_2X*)
        (fp Pin_Header_Angled_2X*)
        (fp Socket_Strip_Straight_2X*)
        (fp Socket_Strip_Angled_2X*)
        (fp IDC_Header_Straight_*))
      (fields
        (field (name Reference) J)
        (field (name Value) CONN_02X25))
      (pins
        (pin (num 1) (name P1) (type passive))
        (pin (num 2) (name P2) (type passive))
        (pin (num 3) (name P3) (type passive))
        (pin (num 4) (name P4) (type passive))
        (pin (num 5) (name P5) (type passive))
        (pin (num 6) (name P6) (type passive))
        (pin (num 7) (name P7) (type passive))
        (pin (num 8) (name P8) (type passive))
        (pin (num 9) (name P9) (type passive))
        (pin (num 10) (name P10) (type passive))
        (pin (num 11) (name P11) (type passive))
        (pin (num 12) (name P12) (type passive))
        (pin (num 13) (name P13) (type passive))
        (pin (num 14) (name P14) (type passive))
        (pin (num 15) (name P15) (type passive))
        (pin (num 16) (name P16) (type passive))
        (pin (num 17) (name P17) (type passive))
        (pin (num 18) (name P18) (type passive))
        (pin (num 19) (name P19) (type passive))
        (pin (num 20) (name P20) (type passive))
        (pin (num 21) (name P21) (type passive))
        (pin (num 22) (name P22) (type passive))
        (pin (num 23) (name P23) (type passive))
        (pin (num 24) (name P24) (type passive))
        (pin (num 25) (name P25) (type passive))
        (pin (num 26) (name P26) (type passive))
        (pin (num 27) (name P27) (type passive))
        (pin (num 28) (name P28) (type passive))
        (pin (num 29) (name P29) (type passive))
        (pin (num 30) (name P30) (type passive))
        (pin (num 31) (name P31) (type passive))
        (pin (num 32) (name P32) (type passive))
        (pin (num 33) (name P33) (type passive))
        (pin (num 34) (name P34) (type passive))
        (pin (num 35) (name P35) (type passive))
        (pin (num 36) (name P36) (type passive))
        (pin (num 37) (name P37) (type passive))
        (pin (num 38) (name P38) (type passive))
        (pin (num 39) (name P39) (type passive))
        (pin (num 40) (name P40) (type passive))
        (pin (num 41) (name P41) (type passive))
        (pin (num 42) (name P42) (type passive))
        (pin (num 43) (name P43) (type passive))
        (pin (num 44) (name P44) (type passive))
        (pin (num 45) (name P45) (type passive))
        (pin (num 46) (name P46) (type passive))
        (pin (num 47) (name P47) (type passive))
        (pin (num 48) (name P48) (type passive))
        (pin (num 49) (name P49) (type passive))
        (pin (num 50) (name P50) (type passive))))
    (libpart (lib device) (part CP)
      (description "Polarised capacitor")
      (footprints
        (fp CP_*))
      (fields
        (field (name Reference) C)
        (field (name Value) CP))
      (pins
        (pin (num 1) (name ~) (type passive))
        (pin (num 2) (name ~) (type passive))))
    (libpart (lib device) (part D_Schottky)
      (description "Schottky diode")
      (footprints
        (fp TO-???*)
        (fp *SingleDiode)
        (fp *_Diode_*)
        (fp *SingleDiode*)
        (fp D_*))
      (fields
        (field (name Reference) D)
        (field (name Value) D_Schottky))
      (pins
        (pin (num 1) (name K) (type passive))
        (pin (num 2) (name A) (type passive))))
    (libpart (lib JP8-4ALL-cache) (part JP_4558)
      (footprints
        (fp SOIC*Pitch1.27mm*)
        (fp DIP*W7.62mm*)
        (fp TSSOP*Pitch0.65mm*)
        (fp TO-99*)
        (fp DSBGA*))
      (fields
        (field (name Reference) U)
        (field (name Value) JP_4558))
      (pins
        (pin (num 1) (name ~) (type output))
        (pin (num 2) (name -) (type input))
        (pin (num 3) (name +) (type input))
        (pin (num 4) (name V-) (type power_in))
        (pin (num 5) (name +) (type input))
        (pin (num 6) (name -) (type input))
        (pin (num 7) (name ~) (type output))
        (pin (num 8) (name V+) (type power_in))))
    (libpart (lib device) (part POT)
      (description Potentionmeter)
      (fields
        (field (name Reference) RV)
        (field (name Value) POT))
      (pins
        (pin (num 1) (name 1) (type passive))
        (pin (num 2) (name 2) (type passive))
        (pin (num 3) (name 3) (type passive))))
    (libpart (lib device) (part Q_NPN_BCE)
      (description "Transistor NPN (general)")
      (fields
        (field (name Reference) Q)
        (field (name Value) Q_NPN_BCE))
      (pins
        (pin (num 1) (name B) (type input))
        (pin (num 2) (name C) (type passive))
        (pin (num 3) (name E) (type passive))))
    (libpart (lib device) (part Q_PNP_BCE)
      (description "Transistor PNP (general)")
      (fields
        (field (name Reference) Q)
        (field (name Value) Q_PNP_BCE))
      (pins
        (pin (num 1) (name B) (type input))
        (pin (num 2) (name C) (type passive))
        (pin (num 3) (name E) (type passive))))
    (libpart (lib device) (part R)
      (description Resistor)
      (footprints
        (fp R_*)
        (fp R_*))
      (fields
        (field (name Reference) R)
        (field (name Value) R))
      (pins
        (pin (num 1) (name ~) (type passive))
        (pin (num 2) (name ~) (type passive)))))
  (libraries
    (library (logical device)
      (uri /usr/share/kicad/library/device.lib))
    (library (logical conn)
      (uri /usr/share/kicad/library/conn.lib))
    (library (logical JP8-4ALL-cache)
      (uri /home/debe/git/JP8-4-ALL/JP8-4ALL-cache.lib)))
  (nets
    (net (code 1) (name "Net-(CON1-Pad4)")
      (node (ref CON1) (pin 4)))
    (net (code 2) (name "Net-(CON2-Pad7)")
      (node (ref CON2) (pin 7)))
    (net (code 3) (name "Net-(CON2-Pad6)")
      (node (ref CON2) (pin 6)))
    (net (code 4) (name "Net-(CON2-Pad5)")
      (node (ref CON2) (pin 5)))
    (net (code 5) (name "Net-(CON2-Pad4)")
      (node (ref CON2) (pin 4)))
    (net (code 6) (name "Net-(CON2-Pad3)")
      (node (ref CON2) (pin 3)))
    (net (code 7) (name "Net-(CON2-Pad2)")
      (node (ref CON2) (pin 2)))
    (net (code 8) (name "Net-(CON2-Pad1)")
      (node (ref CON2) (pin 1)))
    (net (code 9) (name "Net-(CON1-Pad10)")
      (node (ref CON1) (pin 10)))
    (net (code 10) (name "Net-(CON1-Pad9)")
      (node (ref CON1) (pin 9)))
    (net (code 11) (name "Net-(CON1-Pad8)")
      (node (ref CON1) (pin 8)))
    (net (code 12) (name "Net-(CON1-Pad7)")
      (node (ref CON1) (pin 7)))
    (net (code 13) (name "Net-(CON1-Pad6)")
      (node (ref CON1) (pin 6)))
    (net (code 14) (name "Net-(CON1-Pad5)")
      (node (ref CON1) (pin 5)))
    (net (code 15) (name "Net-(CON2-Pad8)")
      (node (ref CON2) (pin 8)))
    (net (code 16) (name "Net-(CON1-Pad3)")
      (node (ref CON1) (pin 3)))
    (net (code 17) (name "Net-(CON1-Pad2)")
      (node (ref CON1) (pin 2)))
    (net (code 18) (name "Net-(CON1-Pad1)")
      (node (ref CON1) (pin 1)))
    (net (code 19) (name /lfo)
      (node (ref CON4) (pin 26)))
    (net (code 20) (name +15v)
      (node (ref TR14) (pin 2))
      (node (ref R81) (pin 2))
      (node (ref R88) (pin 1))
      (node (ref TR15) (pin 2))
      (node (ref CON3) (pin 5))
      (node (ref CON3) (pin 6))
      (node (ref IC9) (pin 8)))
    (net (code 21) (name -13v)
      (node (ref CON4) (pin 1))
      (node (ref CON4) (pin 2)))
    (net (code 22) (name "Net-(CON2-Pad19)")
      (node (ref CON2) (pin 19)))
    (net (code 23) (name "Net-(CON2-Pad18)")
      (node (ref CON2) (pin 18)))
    (net (code 24) (name "Net-(CON2-Pad17)")
      (node (ref CON2) (pin 17)))
    (net (code 25) (name "Net-(CON2-Pad16)")
      (node (ref CON2) (pin 16)))
    (net (code 26) (name "Net-(CON2-Pad15)")
      (node (ref CON2) (pin 15)))
    (net (code 27) (name "Net-(CON2-Pad14)")
      (node (ref CON2) (pin 14)))
    (net (code 28) (name "Net-(CON2-Pad13)")
      (node (ref CON2) (pin 13)))
    (net (code 29) (name "Net-(CON2-Pad12)")
      (node (ref CON2) (pin 12)))
    (net (code 30) (name "Net-(CON2-Pad11)")
      (node (ref CON2) (pin 11)))
    (net (code 31) (name "Net-(CON2-Pad20)")
      (node (ref CON2) (pin 20)))
    (net (code 32) (name "Net-(CON2-Pad10)")
      (node (ref CON2) (pin 10)))
    (net (code 33) (name "Net-(CON2-Pad9)")
      (node (ref CON2) (pin 9)))
    (net (code 34) (name "Net-(CON4-Pad50)")
      (node (ref CON4) (pin 50)))
    (net (code 35) (name "Net-(CON4-Pad14)")
      (node (ref CON4) (pin 14)))
    (net (code 36) (name "Net-(CON4-Pad43)")
      (node (ref CON4) (pin 43)))
    (net (code 37) (name "Net-(CON4-Pad33)")
      (node (ref CON4) (pin 33)))
    (net (code 38) (name "Net-(CON4-Pad23)")
      (node (ref CON4) (pin 23)))
    (net (code 39) (name "Net-(CON4-Pad13)")
      (node (ref CON4) (pin 13)))
    (net (code 40) (name "Net-(CON4-Pad42)")
      (node (ref CON4) (pin 42)))
    (net (code 41) (name "Net-(CON4-Pad32)")
      (node (ref CON4) (pin 32)))
    (net (code 42) (name "Net-(CON4-Pad22)")
      (node (ref CON4) (pin 22)))
    (net (code 43) (name "Net-(CON4-Pad12)")
      (node (ref CON4) (pin 12)))
    (net (code 44) (name "Net-(CON4-Pad41)")
      (node (ref CON4) (pin 41)))
    (net (code 45) (name "Net-(CON4-Pad31)")
      (node (ref CON4) (pin 31)))
    (net (code 46) (name "Net-(CON4-Pad21)")
      (node (ref CON4) (pin 21)))
    (net (code 47) (name "Net-(CON4-Pad40)")
      (node (ref CON4) (pin 40)))
    (net (code 48) (name "Net-(CON4-Pad30)")
      (node (ref CON4) (pin 30)))
    (net (code 49) (name "Net-(CON4-Pad20)")
      (node (ref CON4) (pin 20)))
    (net (code 50) (name +10v)
      (node (ref CON4) (pin 11))
      (node (ref C59) (pin 1))
      (node (ref R85) (pin 2))
      (node (ref TR15) (pin 3))
      (node (ref C61) (pin 1))
      (node (ref CON4) (pin 10)))
    (net (code 51) (name "Net-(CON4-Pad9)")
      (node (ref CON4) (pin 9)))
    (net (code 52) (name -5v)
      (node (ref TR16) (pin 3))
      (node (ref R87) (pin 2))
      (node (ref C62) (pin 1))
      (node (ref C57) (pin 2))
      (node (ref CON4) (pin 7))
      (node (ref CON4) (pin 8)))
    (net (code 53) (name +13v)
      (node (ref CON4) (pin 5))
      (node (ref CON4) (pin 6)))
    (net (code 54) (name gnd)
      (node (ref C58) (pin 2))
      (node (ref R74) (pin 1))
      (node (ref CON3) (pin 3))
      (node (ref C57) (pin 1))
      (node (ref D14) (pin 1))
      (node (ref C60) (pin 2))
      (node (ref C56) (pin 1))
      (node (ref R87) (pin 1))
      (node (ref C55) (pin 1))
      (node (ref CON4) (pin 4))
      (node (ref D12) (pin 2))
      (node (ref C80) (pin 2))
      (node (ref C61) (pin 2))
      (node (ref C59) (pin 2))
      (node (ref VR4) (pin 1))
      (node (ref VR4) (pin 2))
      (node (ref R85) (pin 1))
      (node (ref D13) (pin 2))
      (node (ref CON3) (pin 4))
      (node (ref CON4) (pin 3))
      (node (ref C62) (pin 2)))
    (net (code 55) (name "Net-(CON4-Pad34)")
      (node (ref CON4) (pin 34)))
    (net (code 56) (name "Net-(CON4-Pad24)")
      (node (ref CON4) (pin 24)))
    (net (code 57) (name -15v)
      (node (ref TR16) (pin 2))
      (node (ref IC9) (pin 4))
      (node (ref R86) (pin 2))
      (node (ref R78) (pin 1))
      (node (ref CON3) (pin 2))
      (node (ref CON3) (pin 1))
      (node (ref TR13) (pin 2)))
    (net (code 58) (name "Net-(CON4-Pad49)")
      (node (ref CON4) (pin 49)))
    (net (code 59) (name "Net-(CON4-Pad39)")
      (node (ref CON4) (pin 39)))
    (net (code 60) (name "Net-(CON4-Pad29)")
      (node (ref CON4) (pin 29)))
    (net (code 61) (name "Net-(CON4-Pad19)")
      (node (ref CON4) (pin 19)))
    (net (code 62) (name "Net-(CON4-Pad48)")
      (node (ref CON4) (pin 48)))
    (net (code 63) (name "Net-(CON4-Pad38)")
      (node (ref CON4) (pin 38)))
    (net (code 64) (name "Net-(CON4-Pad28)")
      (node (ref CON4) (pin 28)))
    (net (code 65) (name "Net-(CON4-Pad18)")
      (node (ref CON4) (pin 18)))
    (net (code 66) (name "Net-(CON4-Pad47)")
      (node (ref CON4) (pin 47)))
    (net (code 67) (name "Net-(CON4-Pad27)")
      (node (ref CON4) (pin 27)))
    (net (code 68) (name "Net-(CON4-Pad37)")
      (node (ref CON4) (pin 37)))
    (net (code 69) (name "Net-(CON4-Pad44)")
      (node (ref CON4) (pin 44)))
    (net (code 70) (name "Net-(CON4-Pad15)")
      (node (ref CON4) (pin 15)))
    (net (code 71) (name "Net-(CON4-Pad25)")
      (node (ref CON4) (pin 25)))
    (net (code 72) (name "Net-(CON4-Pad35)")
      (node (ref CON4) (pin 35)))
    (net (code 73) (name "Net-(CON4-Pad45)")
      (node (ref CON4) (pin 45)))
    (net (code 74) (name "Net-(CON4-Pad16)")
      (node (ref CON4) (pin 16)))
    (net (code 75) (name "Net-(CON4-Pad36)")
      (node (ref CON4) (pin 36)))
    (net (code 76) (name "Net-(CON4-Pad46)")
      (node (ref CON4) (pin 46)))
    (net (code 77) (name "Net-(CON4-Pad17)")
      (node (ref CON4) (pin 17)))
    (net (code 78) (name "Net-(IC9-Pad2)")
      (node (ref IC9) (pin 2))
      (node (ref R75) (pin 2))
      (node (ref R76) (pin 2)))
    (net (code 79) (name "Net-(R78-Pad2)")
      (node (ref TR13) (pin 1))
      (node (ref R78) (pin 2))
      (node (ref R79) (pin 1)))
    (net (code 80) (name "Net-(IC9-Pad3)")
      (node (ref IC9) (pin 3))
      (node (ref R74) (pin 2)))
    (net (code 81) (name "Net-(R80-Pad1)")
      (node (ref TR14) (pin 1))
      (node (ref R81) (pin 1))
      (node (ref R80) (pin 1)))
    (net (code 82) (name "Net-(IC9-Pad7)")
      (node (ref IC9) (pin 7))
      (node (ref R80) (pin 2)))
    (net (code 83) (name "Net-(IC9-Pad1)")
      (node (ref IC9) (pin 1))
      (node (ref R79) (pin 2)))
    (net (code 84) (name /power-control/-13v)
      (node (ref C55) (pin 2))
      (node (ref C56) (pin 2))
      (node (ref R75) (pin 1))
      (node (ref TR13) (pin 3)))
    (net (code 85) (name "Net-(D13-Pad1)")
      (node (ref R88) (pin 2))
      (node (ref TR15) (pin 1))
      (node (ref D13) (pin 1)))
    (net (code 86) (name "Net-(D14-Pad2)")
      (node (ref TR16) (pin 1))
      (node (ref D14) (pin 2))
      (node (ref R86) (pin 1)))
    (net (code 87) (name /power-control/+13v)
      (node (ref C58) (pin 1))
      (node (ref TR14) (pin 3))
      (node (ref R83) (pin 1))
      (node (ref C60) (pin 1))
      (node (ref R82) (pin 1))
      (node (ref R76) (pin 1)))
    (net (code 88) (name "Net-(IC9-Pad6)")
      (node (ref R84) (pin 1))
      (node (ref R83) (pin 2))
      (node (ref IC9) (pin 6)))
    (net (code 89) (name "Net-(C80-Pad1)")
      (node (ref IC9) (pin 5))
      (node (ref C80) (pin 1))
      (node (ref D12) (pin 1))
      (node (ref R82) (pin 2)))
    (net (code 90) (name "Net-(R84-Pad2)")
      (node (ref VR4) (pin 3))
      (node (ref R84) (pin 2)))))