(module C_Disc_D3.0mm_W1.6mm_P2.50mm (layer F.Cu) (tedit 5BF1F4E8)
  (descr "C, Disc series, Radial, pin pitch=2.50mm, , diameter*width=3.0*1.6mm^2, Capacitor, http://www.vishay.com/docs/45233/krseries.pdf")
  (tags "C Disc series Radial pin pitch 2.50mm  diameter 3.0mm width 1.6mm Capacitor")
  (fp_text reference REF** (at 1.27 0) (layer F.SilkS)
    (effects (font (size 1 1) (thickness 0.15)))
  )
  (fp_text value C_Disc_D3.0mm_W1.6mm_P2.50mm (at 1.25 1.86) (layer F.Fab)
    (effects (font (size 1 1) (thickness 0.15)))
  )
  (fp_line (start -0.25 -0.8) (end -0.25 0.8) (layer F.Fab) (width 0.1))
  (fp_line (start -0.25 0.8) (end 2.75 0.8) (layer F.Fab) (width 0.1))
  (fp_line (start 2.75 0.8) (end 2.75 -0.8) (layer F.Fab) (width 0.1))
  (fp_line (start 2.75 -0.8) (end -0.25 -0.8) (layer F.Fab) (width 0.1))
  (fp_line (start 0.663 -0.861) (end 1.837 -0.861) (layer F.SilkS) (width 0.12))
  (fp_line (start 0.663 0.861) (end 1.837 0.861) (layer F.SilkS) (width 0.12))
  (fp_line (start -1.05 -1.15) (end -1.05 1.15) (layer F.CrtYd) (width 0.05))
  (fp_line (start -1.05 1.15) (end 3.55 1.15) (layer F.CrtYd) (width 0.05))
  (fp_line (start 3.55 1.15) (end 3.55 -1.15) (layer F.CrtYd) (width 0.05))
  (fp_line (start 3.55 -1.15) (end -1.05 -1.15) (layer F.CrtYd) (width 0.05))
  (pad 1 thru_hole circle (at 0 0) (size 1.6 1.6) (drill 0.8) (layers *.Cu *.Mask))
  (pad 2 thru_hole circle (at 2.5 0) (size 1.6 1.6) (drill 0.8) (layers *.Cu *.Mask))
  (model Capacitors_THT.3dshapes/C_Disc_D3.0mm_W1.6mm_P2.50mm.wrl
    (at (xyz 0 0 0))
    (scale (xyz 0.393701 0.393701 0.393701))
    (rotate (xyz 0 0 0))
  )
)
