(module C_Disc_D7.5mm_W2.5mm_P10.00mm (layer F.Cu) (tedit 5BFF2134)
  (descr "C, Disc series, Radial, pin pitch=5.00mm, , diameter*width=7.5*2.5mm^2, Capacitor, http://www.vishay.com/docs/28535/vy2series.pdf")
  (tags "C Disc series Radial pin pitch 5.00mm  diameter 7.5mm width 2.5mm Capacitor")
  (fp_text reference REF** (at 2.54 0) (layer F.SilkS)
    (effects (font (size 1 1) (thickness 0.15)))
  )
  (fp_text value C_Disc_D7.5mm_W2.5mm_P10.00mm (at -0.04 2.31) (layer F.Fab)
    (effects (font (size 1 1) (thickness 0.15)))
  )
  (fp_line (start -3.81 1.27) (end -1.27 1.27) (layer F.SilkS) (width 0.15))
  (fp_line (start 8.89 1.27) (end 6.35 1.27) (layer F.SilkS) (width 0.15))
  (fp_line (start 6.35 -1.27) (end 8.89 -1.27) (layer F.SilkS) (width 0.15))
  (fp_line (start -3.81 -1.27) (end -1.27 -1.27) (layer F.SilkS) (width 0.15))
  (fp_line (start -3.79 -1.25) (end -3.79 1.25) (layer F.Fab) (width 0.1))
  (fp_line (start -1.25 1.25) (end 6.25 1.25) (layer F.Fab) (width 0.1))
  (fp_line (start 8.79 1.25) (end 8.79 -1.25) (layer F.Fab) (width 0.1))
  (fp_line (start 6.25 -1.25) (end -1.25 -1.25) (layer F.Fab) (width 0.1))
  (fp_line (start -1.31 -1.31) (end 6.31 -1.31) (layer F.SilkS) (width 0.12))
  (fp_line (start -1.31 1.31) (end 6.31 1.31) (layer F.SilkS) (width 0.12))
  (fp_line (start -3.85 -1.31) (end -3.85 1.31) (layer F.SilkS) (width 0.12))
  (fp_line (start 8.85 -1.31) (end 8.85 1.31) (layer F.SilkS) (width 0.12))
  (fp_line (start -4.14 -1.6) (end -4.14 1.6) (layer F.CrtYd) (width 0.05))
  (fp_line (start -1.6 1.6) (end 6.6 1.6) (layer F.CrtYd) (width 0.05))
  (fp_line (start 9.14 1.6) (end 9.14 -1.6) (layer F.CrtYd) (width 0.05))
  (fp_line (start 6.6 -1.6) (end -1.6 -1.6) (layer F.CrtYd) (width 0.05))
  (pad 1 thru_hole circle (at -2.54 0) (size 1.6 1.6) (drill 0.8) (layers *.Cu *.Mask))
  (pad 2 thru_hole circle (at 7.54 0) (size 1.6 1.6) (drill 0.8) (layers *.Cu *.Mask))
  (model Capacitors_THT.3dshapes/C_Disc_D7.5mm_W2.5mm_P5.00mm.wrl
    (at (xyz 0 0 0))
    (scale (xyz 0.393701 0.393701 0.393701))
    (rotate (xyz 0 0 0))
  )
)
