(module CP_Radial_D10.0mm_P7.50mm (layer F.Cu) (tedit 5BF21F9E)
  (descr "CP, Radial series, Radial, pin pitch=7.50mm, , diameter=10mm, Electrolytic Capacitor")
  (tags "CP Radial series Radial pin pitch 7.50mm  diameter 10mm Electrolytic Capacitor")
  (fp_text reference REF** (at 3.81 0) (layer F.SilkS)
    (effects (font (size 1 1) (thickness 0.15)))
  )
  (fp_text value CP_Radial_D10.0mm_P7.50mm (at 3.75 6.06) (layer F.Fab)
    (effects (font (size 1 1) (thickness 0.15)))
  )
  (fp_arc (start 3.75 0) (end 8.701333 -1.18) (angle 26.8) (layer F.SilkS) (width 0.12))
  (fp_line (start -2.7 0) (end -1.2 0) (layer F.Fab) (width 0.1))
  (fp_line (start -1.95 -0.75) (end -1.95 0.75) (layer F.Fab) (width 0.1))
  (fp_line (start 8.711 -1.104) (end 8.711 1.104) (layer F.SilkS) (width 0.12))
  (fp_line (start 8.751 -0.913) (end 8.751 0.913) (layer F.SilkS) (width 0.12))
  (fp_line (start 8.791 -0.672) (end 8.791 0.672) (layer F.SilkS) (width 0.12))
  (fp_line (start 8.831 -0.279) (end 8.831 0.279) (layer F.SilkS) (width 0.12))
  (fp_line (start -2.7 0) (end -1.2 0) (layer F.SilkS) (width 0.12))
  (fp_line (start -1.95 -0.75) (end -1.95 0.75) (layer F.SilkS) (width 0.12))
  (fp_line (start -1.6 -5.35) (end -1.6 5.35) (layer F.CrtYd) (width 0.05))
  (fp_line (start -1.6 5.35) (end 9.1 5.35) (layer F.CrtYd) (width 0.05))
  (fp_line (start 9.1 5.35) (end 9.1 -5.35) (layer F.CrtYd) (width 0.05))
  (fp_line (start 9.1 -5.35) (end -1.6 -5.35) (layer F.CrtYd) (width 0.05))
  (pad 1 thru_hole rect (at 0 0) (size 1.6 1.6) (drill 0.8) (layers *.Cu *.Mask))
  (pad 2 thru_hole circle (at 7.5 0) (size 1.6 1.6) (drill 0.8) (layers *.Cu *.Mask))
  (model Capacitors_THT.3dshapes/CP_Radial_D10.0mm_P7.50mm.wrl
    (at (xyz 0 0 0))
    (scale (xyz 0.393701 0.393701 0.393701))
    (rotate (xyz 0 0 0))
  )
)
